BRANCH   DATE   PRODUCT        INCOME
A      23-09-01  Apple            100
                 Orange           150
            DATE TOTAL            250
       23-09-01  Apple            150
            DATE TOTAL            150
----------BRANCH TOTAL----------  400
B      23-09-02  Apple            200
            DATE TOTAL            200
       23-09-01  Orange           350
            DATE TOTAL            350
----------BRANCH TOTAL----------  550
C      23-09-01  Apple            100
                 Orange           150
            DATE TOTAL            250
       23-09-02  Orange           300
            DATE TOTAL            300
----------BRANCH TOTAL----------  550
>          ALL TOTAL           < 1500
